<?xml version="1.0" encoding="UTF-8"?>
<!DOCTYPE svg PUBLIC "-//W3C//DTD SVG 1.1//EN" "http://www.w3.org/Graphics/SVG/1.1/DTD/svg11.dtd">
<svg version="1.1" xmlns="http://www.w3.org/2000/svg" xmlns:xlink="http://www.w3.org/1999/xlink" x="0" y="0" width="500" height="500" viewBox="0, 0, 500, 500">
  <g id="Livello_1">
    <path d="M0,0 L500,0 L500,500 L0,500 L0,0 z" fill="#42AB3D"/>
    <path d="M270.876,277.664 L270.876,264.08 C273.932,262.566 282.673,252.161 283.59,244.031 C285.995,243.847 289.771,241.64 290.885,232.926 C291.482,228.246 289.105,225.618 287.665,224.789 C287.665,224.789 291.251,217.977 291.251,209.752 C291.251,193.261 284.779,179.188 270.876,179.188 C270.876,179.188 266.047,169.001 250.5,169.001 C221.689,169.001 209.749,187.481 209.749,209.752 C209.749,217.25 213.335,224.789 213.335,224.789 C211.895,225.618 209.518,228.253 210.115,232.926 C211.229,241.64 215.005,243.847 217.41,244.031 C218.327,252.161 227.068,262.566 230.124,264.08 L230.124,277.664 C223.332,298.04 168.997,284.456 168.997,332 L332.003,332 C332.003,284.456 277.668,298.04 270.876,277.664 z" fill-opacity="0" stroke="#FFFFFF" stroke-width="5"/>
  </g>
</svg>
